{
    "version": "https://jsonfeed.org/version/1",
    "title": "TJ CMS",
    "description": "",
    "home_page_url": "https://gwrobel.gitlab.io/publii",
    "feed_url": "https://gwrobel.gitlab.io/publii/feed.json",
    "user_comment": "",
    "author": {
        "name": "Gunnar"
    },
    "items": [
        {
            "id": "https://gwrobel.gitlab.io/publii/debloghallo-zusammen.html",
            "url": "https://gwrobel.gitlab.io/publii/debloghallo-zusammen.html",
            "title": "Hallo zusammen!",
            "summary": "JobMatchMe hat ein grandioses Jahr vor sich. ",
            "content_html": "<p>JobMatchMe hat ein grandioses Jahr vor sich.</p>\n<p><img src=\"https://gwrobel.gitlab.io/publii/media/posts/1/JMM_LOGO_me-1.png\" alt=\"\" width=\"320\" height=\"320\"></p>",
            "image": "https://gwrobel.gitlab.io/publii/media/posts/1/",
            "author": {
                "name": "Gunnar"
            },
            "tags": [
            ],
            "date_published": "2019-01-03T09:23:23+01:00",
            "date_modified": "2019-01-03T10:14:48+01:00"
        }
    ]
}
